{
  "count":157008,
  "next":"http://freesound.org/apiv2/search/text/?&query=sound&page=2&fields=geotag,images,description,username,id,url,name,duration,previews,tags,created",
  "results":[
    {
      "id":360940,
      "url":"https://freesound.org/people/InspectorJ/sounds/360940/",
      "name":"Worst Sound in the World Contest, E.wav",
      "tags":[
        "scanner",
        "dontlistentothissound",
        "Annoying",
        "worst",
        "Earbleed",
        "Horrible",
        "Worst",
        "earbleed",
        "terrible",
        "Terrible",
        "horrible",
        "Scanner",
        "annoying",
        "sound",
        "Sound"
      ],
      "description":"A horrible sound for a contest, created by recording an old photo-slide scanner, paulstretching the sound six times, layering it with adjacent semitone pitches, and finally adding a very deep tremolo. An awful sound.\r\n\r\nPlease comment on where you intend to use the sound, and feel free to post a link to the work where you used it if you want (I enjoy watching/listening to anything you create!)\r\n\r\nThe sound was recorded using a \"H1 Zoom V2 recorder\".\r\n\r\nOriginally edited using Audacity and Paulstretch on 25th September 2016.\r\n\r\nNote: Audio quality is always better when downloaded.",
      "geotag":null,
      "created":"2016-09-27T01:47:34.279164",
      "duration":9.79125,
      "username":"InspectorJ",
      "previews":{
        "preview-lq-ogg":"https://freesound.org/data/previews/360/360940_5121236-lq.ogg",
        "preview-lq-mp3":"https://freesound.org/data/previews/360/360940_5121236-lq.mp3",
        "preview-hq-ogg":"https://freesound.org/data/previews/360/360940_5121236-hq.ogg",
        "preview-hq-mp3":"https://freesound.org/data/previews/360/360940_5121236-hq.mp3"
      },
      "images":{
        "waveform_l":"https://freesound.org/data/displays/360/360940_5121236_wave_L.png",
        "waveform_m":"https://freesound.org/data/displays/360/360940_5121236_wave_M.png",
        "spectral_m":"https://freesound.org/data/displays/360/360940_5121236_spec_M.jpg",
        "spectral_l":"https://freesound.org/data/displays/360/360940_5121236_spec_L.jpg"
      }
    },
    {
      "id":360937,
      "url":"https://freesound.org/people/InspectorJ/sounds/360937/",
      "name":"Worst Sound in the World Contest, C.wav",
      "tags":[
        "dontlistentothissound",
        "Annoying",
        "worst",
        "Earbleed",
        "Horrible",
        "Worst",
        "Noodle",
        "earbleed",
        "terrible",
        "Terrible",
        "horrible",
        "noodle",
        "annoying",
        "sound",
        "Sound"
      ],
      "description":"(WARNING HEADPHONE USERS!)\r\n\r\nA horrible sound for a contest, created by scraping a swimming noodle and then phasing it with 100% feedback (making the original noodle sound irrelevant). This phasing was then layered on top of itself.\r\n\r\nPlease comment on where you intend to use the sound, and feel free to post a link to the work where you used it if you want (I enjoy watching/listening to anything you create!)\r\n\r\nThe sound was recorded using a \"H1 Zoom V2 recorder\".\r\n\r\nOriginally edited using Audacity and Paulstretch on 25th September 2016.\r\n\r\nNote: Audio quality is always better when downloaded.",
      "geotag":"4.65241157574 -74.0594869852",
      "created":"2016-09-27T01:47:32.575865",
      "duration":27.839,
      "username":"InspectorJ",
      "previews":{
        "preview-lq-ogg":"https://freesound.org/data/previews/360/360937_5121236-lq.ogg",
        "preview-lq-mp3":"https://freesound.org/data/previews/360/360937_5121236-lq.mp3",
        "preview-hq-ogg":"https://freesound.org/data/previews/360/360937_5121236-hq.ogg",
        "preview-hq-mp3":"https://freesound.org/data/previews/360/360937_5121236-hq.mp3"
      },
      "images":{
        "waveform_l":"https://freesound.org/data/displays/360/360937_5121236_wave_L.png",
        "waveform_m":"https://freesound.org/data/displays/360/360937_5121236_wave_M.png",
        "spectral_m":"https://freesound.org/data/displays/360/360937_5121236_spec_M.jpg",
        "spectral_l":"https://freesound.org/data/displays/360/360937_5121236_spec_L.jpg"
      }
    }
  ],
  "previous":"http://freesound.org/apiv2/search/text/?&query=sound&page=0&fields=geotag,images,description,username,id,url,name,duration,previews,tags,created"
}